{
  "unknown": {
    "code": 0,
    "msg": "unknown error"
  },
  "post-exists": {
    "code": 1,
    "msg": "post already exists"
  },
  "auth-failed": {
    "code": 2,
    "msg": "unsuccessful authorization"
  },
  "post-source-invalid": {
    "code": 3,
    "msg": "post is not found"
  },
  "invalid-open-token": {
    "code": 4,
    "msg": "invalid open token"
  },
  "small-content": {
    "code": 5,
    "msg": "content is too small"
  },
  "invalid-account-id": {
    "code": 6,
    "msg": "account id is invalid"
  },
  "denied-account": {
    "code": 7,
    "msg": "access denied to group account"
  }, 
  "too-many-accounts": {
    "code": 8,
    "msg": "too many accounts"
  },
  "invalid-invite": {
    "code": 9,
    "msg": "invalid invite"
  },
  "too-many-members": {
    "code": 10,
    "msg": "too many members"
  },
  "user-ban": {
    "code": 11,
    "msg": "user is banned"
  },
  "username-reserved": {
    "code": 12,
    "msg": "username is reserved"
  }
}